2_semestre/LSD/lsdalone/LSD_PJ/PROJETO_FINAL/simulation/qsim/ProjFinal.msim.vcd
$comment
	File created using the following command:
		vcd file ProjFinal.msim.vcd -direction
$end
$date
	Tue Jun 15 13:54:05 2021
$end
$version
	ModelSim Version 10.5b
$end
$timescale
	1ps
$end

$scope module bin_to_bcd_fsm_vhd_vec_tst $end
$var wire 1 ! activate $end
$var wire 1 " bin_input [9] $end
$var wire 1 # bin_input [8] $end
$var wire 1 $ bin_input [7] $end
$var wire 1 % bin_input [6] $end
$var wire 1 & bin_input [5] $end
$var wire 1 ' bin_input [4] $end
$var wire 1 ( bin_input [3] $end
$var wire 1 ) bin_input [2] $end
$var wire 1 * bin_input [1] $end
$var wire 1 + bin_input [0] $end
$var wire 1 , clk $end
$var wire 1 - digit0 [3] $end
$var wire 1 . digit0 [2] $end
$var wire 1 / digit0 [1] $end
$var wire 1 0 digit0 [0] $end
$var wire 1 1 digit1 [3] $end
$var wire 1 2 digit1 [2] $end
$var wire 1 3 digit1 [1] $end
$var wire 1 4 digit1 [0] $end
$var wire 1 5 digit2 [3] $end
$var wire 1 6 digit2 [2] $end
$var wire 1 7 digit2 [1] $end
$var wire 1 8 digit2 [0] $end
$var wire 1 9 done $end

$scope module i1 $end
$var wire 1 : gnd $end
$var wire 1 ; vcc $end
$var wire 1 < unknown $end
$var wire 1 = devoe $end
$var wire 1 > devclrn $end
$var wire 1 ? devpor $end
$var wire 1 @ ww_devoe $end
$var wire 1 A ww_devclrn $end
$var wire 1 B ww_devpor $end
$var wire 1 C ww_clk $end
$var wire 1 D ww_bin_input [9] $end
$var wire 1 E ww_bin_input [8] $end
$var wire 1 F ww_bin_input [7] $end
$var wire 1 G ww_bin_input [6] $end
$var wire 1 H ww_bin_input [5] $end
$var wire 1 I ww_bin_input [4] $end
$var wire 1 J ww_bin_input [3] $end
$var wire 1 K ww_bin_input [2] $end
$var wire 1 L ww_bin_input [1] $end
$var wire 1 M ww_bin_input [0] $end
$var wire 1 N ww_activate $end
$var wire 1 O ww_digit2 [3] $end
$var wire 1 P ww_digit2 [2] $end
$var wire 1 Q ww_digit2 [1] $end
$var wire 1 R ww_digit2 [0] $end
$var wire 1 S ww_digit1 [3] $end
$var wire 1 T ww_digit1 [2] $end
$var wire 1 U ww_digit1 [1] $end
$var wire 1 V ww_digit1 [0] $end
$var wire 1 W ww_digit0 [3] $end
$var wire 1 X ww_digit0 [2] $end
$var wire 1 Y ww_digit0 [1] $end
$var wire 1 Z ww_digit0 [0] $end
$var wire 1 [ ww_done $end
$var wire 1 \ \digit2[0]~output_o\ $end
$var wire 1 ] \digit2[1]~output_o\ $end
$var wire 1 ^ \digit2[2]~output_o\ $end
$var wire 1 _ \digit2[3]~output_o\ $end
$var wire 1 ` \digit1[0]~output_o\ $end
$var wire 1 a \digit1[1]~output_o\ $end
$var wire 1 b \digit1[2]~output_o\ $end
$var wire 1 c \digit1[3]~output_o\ $end
$var wire 1 d \digit0[0]~output_o\ $end
$var wire 1 e \digit0[1]~output_o\ $end
$var wire 1 f \digit0[2]~output_o\ $end
$var wire 1 g \digit0[3]~output_o\ $end
$var wire 1 h \done~output_o\ $end
$var wire 1 i \clk~input_o\ $end
$var wire 1 j \Add0~0_combout\ $end
$var wire 1 k \bin_input[2]~input_o\ $end
$var wire 1 l \input[2]~0_combout\ $end
$var wire 1 m \bin_input[1]~input_o\ $end
$var wire 1 n \LessThan1~0_combout\ $end
$var wire 1 o \LessThan1~1_combout\ $end
$var wire 1 p \activate~input_o\ $end
$var wire 1 q \input[1]~8_combout\ $end
$var wire 1 r \Selector0~1_combout\ $end
$var wire 1 s \Selector3~0_combout\ $end
$var wire 1 t \s_state.finish~q\ $end
$var wire 1 u \Selector0~2_combout\ $end
$var wire 1 v \s_state.idle~q\ $end
$var wire 1 w \input[1]~10_combout\ $end
$var wire 1 x \Add2~0_combout\ $end
$var wire 1 y \input[1]~11_combout\ $end
$var wire 1 z \input[1]~12_combout\ $end
$var wire 1 { \Add2~1\ $end
$var wire 1 | \Add2~2_combout\ $end
$var wire 1 } \LessThan0~1_combout\ $end
$var wire 1 ~ \cem[0]~2_combout\ $end
$var wire 1 !! \input[9]~13_combout\ $end
$var wire 1 "! \Add0~1\ $end
$var wire 1 #! \Add0~2_combout\ $end
$var wire 1 $! \bin_input[3]~input_o\ $end
$var wire 1 %! \input[3]~1_combout\ $end
$var wire 1 &! \Add2~3\ $end
$var wire 1 '! \Add2~4_combout\ $end
$var wire 1 (! \Add0~3\ $end
$var wire 1 )! \Add0~4_combout\ $end
$var wire 1 *! \bin_input[4]~input_o\ $end
$var wire 1 +! \input[4]~7_combout\ $end
$var wire 1 ,! \Add2~5\ $end
$var wire 1 -! \Add2~6_combout\ $end
$var wire 1 .! \Add0~5\ $end
$var wire 1 /! \Add0~6_combout\ $end
$var wire 1 0! \bin_input[5]~input_o\ $end
$var wire 1 1! \input[5]~5_combout\ $end
$var wire 1 2! \Add2~7\ $end
$var wire 1 3! \Add2~8_combout\ $end
$var wire 1 4! \Add0~7\ $end
$var wire 1 5! \Add0~8_combout\ $end
$var wire 1 6! \bin_input[6]~input_o\ $end
$var wire 1 7! \input[6]~6_combout\ $end
$var wire 1 8! \Add2~9\ $end
$var wire 1 9! \Add2~10_combout\ $end
$var wire 1 :! \Add0~9\ $end
$var wire 1 ;! \Add0~10_combout\ $end
$var wire 1 <! \bin_input[7]~input_o\ $end
$var wire 1 =! \input[7]~2_combout\ $end
$var wire 1 >! \Add2~11\ $end
$var wire 1 ?! \Add2~12_combout\ $end
$var wire 1 @! \Add0~11\ $end
$var wire 1 A! \Add0~12_combout\ $end
$var wire 1 B! \bin_input[8]~input_o\ $end
$var wire 1 C! \input[8]~3_combout\ $end
$var wire 1 D! \Add2~13\ $end
$var wire 1 E! \Add2~14_combout\ $end
$var wire 1 F! \Add0~13\ $end
$var wire 1 G! \Add0~14_combout\ $end
$var wire 1 H! \bin_input[9]~input_o\ $end
$var wire 1 I! \input[9]~4_combout\ $end
$var wire 1 J! \Add2~15\ $end
$var wire 1 K! \Add2~16_combout\ $end
$var wire 1 L! \LessThan0~0_combout\ $end
$var wire 1 M! \Selector0~0_combout\ $end
$var wire 1 N! \Selector2~0_combout\ $end
$var wire 1 O! \s_state.sub10~q\ $end
$var wire 1 P! \Selector1~0_combout\ $end
$var wire 1 Q! \Selector1~1_combout\ $end
$var wire 1 R! \s_state.sub100~q\ $end
$var wire 1 S! \Selector16~0_combout\ $end
$var wire 1 T! \cem[0]~3_combout\ $end
$var wire 1 U! \digit2[0]~reg0_q\ $end
$var wire 1 V! \Selector15~0_combout\ $end
$var wire 1 W! \digit2[1]~reg0_q\ $end
$var wire 1 X! \Selector14~0_combout\ $end
$var wire 1 Y! \digit2[2]~reg0_q\ $end
$var wire 1 Z! \Add1~0_combout\ $end
$var wire 1 [! \Selector13~0_combout\ $end
$var wire 1 \! \digit2[3]~reg0_q\ $end
$var wire 1 ]! \Selector20~0_combout\ $end
$var wire 1 ^! \dez[0]~2_combout\ $end
$var wire 1 _! \digit1[0]~reg0_q\ $end
$var wire 1 `! \Selector19~0_combout\ $end
$var wire 1 a! \digit1[1]~reg0_q\ $end
$var wire 1 b! \Selector18~0_combout\ $end
$var wire 1 c! \digit1[2]~reg0_q\ $end
$var wire 1 d! \Add3~0_combout\ $end
$var wire 1 e! \Selector17~0_combout\ $end
$var wire 1 f! \digit1[3]~reg0_q\ $end
$var wire 1 g! \bin_input[0]~input_o\ $end
$var wire 1 h! \input[0]~9_combout\ $end
$var wire 1 i! \digit0[0]~reg0_q\ $end
$var wire 1 j! \digit0[1]~reg0_q\ $end
$var wire 1 k! \digit0[2]~reg0_q\ $end
$var wire 1 l! \digit0[3]~reg0_q\ $end
$var wire 1 m! \done~reg0_q\ $end
$var wire 1 n! input [9] $end
$var wire 1 o! input [8] $end
$var wire 1 p! input [7] $end
$var wire 1 q! input [6] $end
$var wire 1 r! input [5] $end
$var wire 1 s! input [4] $end
$var wire 1 t! input [3] $end
$var wire 1 u! input [2] $end
$var wire 1 v! input [1] $end
$var wire 1 w! input [0] $end
$var wire 1 x! cem [3] $end
$var wire 1 y! cem [2] $end
$var wire 1 z! cem [1] $end
$var wire 1 {! cem [0] $end
$var wire 1 |! dez [3] $end
$var wire 1 }! dez [2] $end
$var wire 1 ~! dez [1] $end
$var wire 1 !" dez [0] $end
$upscope $end
$upscope $end
$enddefinitions $end
#0
$dumpvars
0!
0,
09
0:
1;
x<
1=
1>
1?
1@
1A
1B
0C
0N
0[
0\
0]
0^
0_
0`
0a
0b
0c
0d
0e
0f
0g
0h
0i
1j
0k
0l
0m
1n
1o
0p
0q
1r
0s
0t
0u
0v
0w
1x
0y
0z
0{
1|
1}
1~
0!!
0"!
1#!
0$!
0%!
1&!
0'!
1(!
1)!
0*!
0+!
0,!
1-!
0.!
0/!
00!
01!
12!
13!
14!
05!
06!
07!
08!
19!
0:!
1;!
0<!
0=!
1>!
1?!
1@!
1A!
0B!
0C!
0D!
1E!
0F!
1G!
0H!
0I!
1J!
1K!
1L!
0M!
0N!
0O!
1P!
0Q!
0R!
0S!
0T!
0U!
0V!
0W!
0X!
0Y!
0Z!
0[!
0\!
0]!
0^!
0_!
0`!
0a!
0b!
0c!
0d!
0e!
0f!
0g!
0h!
0i!
0j!
0k!
0l!
0m!
0"
0#
0$
0%
0&
0'
0(
0)
0*
0+
0D
0E
0F
0G
0H
0I
0J
0K
0L
0M
0O
0P
0Q
0R
0S
0T
0U
0V
0W
0X
0Y
0Z
0n!
0o!
0p!
0q!
0r!
0s!
0t!
0u!
0v!
0w!
0x!
0y!
0z!
0{!
0|!
0}!
0~!
0!"
0-
0.
0/
00
01
02
03
04
05
06
07
08
$end
#15000
1,
1C
1i
#30000
0,
0C
0i
#45000
1,
1C
1i
#50000
1$
1F
1<!
1=!
#60000
0,
1!
0C
1N
1p
0i
1q
1w
1T!
1^!
0r
1!!
1Q!
1u
#75000
1,
1C
1i
1v
1p!
1R!
1l
1%!
1+!
1C!
1I!
1M!
1S!
0;!
0@!
0?!
1D!
0L!
0q
0w
0T!
0^!
0!!
0o
0~
0M!
0E!
0J!
0A!
1F!
0=!
1N!
0P!
0Q!
0G!
0C!
0K!
0N!
1T!
1r
1!!
1P!
1Q!
0I!
#90000
0,
0C
0i
#105000
1,
1C
1i
1u!
1t!
1s!
0p!
1{!
0S!
1V!
1;!
1@!
1?!
0D!
1L!
0)!
1.!
0-!
02!
0#!
0(!
1'!
0j
1"!
0n
0|
0&!
0'!
1,!
1#!
0l
1)!
0%!
03!
18!
1/!
0+!
1~
1M!
1E!
1J!
1A!
0F!
1=!
1G!
1C!
1K!
0r
0P!
0!!
0T!
11!
09!
0>!
1+!
1%!
1-!
0?!
1D!
0Q!
1N!
1I!
0E!
0J!
0K!
#110000
0$
0F
0<!
#120000
0,
0C
0i
#135000
1,
1C
1i
1O!
0R!
0%!
0+!
01!
0=!
0C!
0I!
0M!
0V!
1w
1!!
1]!
1^!
1y
1r
0N!
1P!
1N!
1z
#150000
0,
0C
0i
#165000
1,
1C
1i
1v!
0u!
0t!
1!"
0]!
1`!
0#!
1'!
0,!
1j
0"!
1|
1&!
1n
0x
1{
0|
0&!
0y
0'!
1#!
1(!
0-!
0)!
0z
1'!
#180000
0,
0C
0i
#195000
1,
1C
1i
0v!
1t!
0s!
0!"
1~!
1]!
1o
1)!
0.!
1-!
12!
0#!
0(!
0'!
1,!
1x
0{
1|
1&!
0-!
02!
0)!
1.!
13!
08!
0/!
0r
0!!
0P!
0^!
1s
0N!
19!
1>!
1/!
03!
18!
1'!
0,!
1-!
12!
09!
0>!
1?!
0D!
1E!
1J!
0?!
1D!
13!
08!
19!
1>!
0E!
0J!
1K!
0K!
1?!
0D!
1E!
1J!
1K!
#210000
0,
0C
0i
#225000
1,
1C
1i
1t
0O!
1r
0w
1P!
0]!
0`!
0s
0u
#230000
0!
0N
0p
#240000
0,
0C
0i
#255000
1,
1C
1i
0t
0v
1U!
1a!
1l!
1m!
1h
1g
1a
1\
1[
1W
1U
1R
19
1-
13
18
#270000
0,
0C
0i
#285000
1,
1C
1i
0m!
0h
0[
09
#300000
0,
0C
0i
#315000
1,
1C
1i
#330000
0,
0C
0i
#345000
1,
1C
1i
#360000
0,
0C
0i
#375000
1,
1C
1i
#390000
0,
0C
0i
#405000
1,
1C
1i
#420000
0,
0C
0i
#435000
1,
1C
1i
#450000
0,
0C
0i
#465000
1,
1C
1i
#480000
0,
0C
0i
#495000
1,
1C
1i
#510000
0,
0C
0i
#525000
1,
1C
1i
#540000
0,
0C
0i
#555000
1,
1C
1i
#570000
0,
0C
0i
#585000
1,
1C
1i
#600000
0,
0C
0i
#615000
1,
1C
1i
#630000
0,
0C
0i
#645000
1,
1C
1i
#660000
0,
0C
0i
#675000
1,
1C
1i
#690000
0,
0C
0i
#705000
1,
1C
1i
#720000
0,
0C
0i
#735000
1,
1C
1i
#750000
0,
0C
0i
#765000
1,
1C
1i
#780000
0,
0C
0i
#795000
1,
1C
1i
#810000
0,
0C
0i
#825000
1,
1C
1i
#840000
0,
0C
0i
#855000
1,
1C
1i
#870000
0,
0C
0i
#885000
1,
1C
1i
#900000
0,
0C
0i
#915000
1,
1C
1i
#930000
0,
0C
0i
#945000
1,
1C
1i
#960000
0,
0C
0i
#975000
1,
1C
1i
#990000
0,
0C
0i
