2_semestre/LSD/lsdalone/trab4/p2/simulation/qsim/parte2.msim.vcd
$comment
	File created using the following command:
		vcd file parte2.msim.vcd -direction
$end
$date
	Fri Apr 23 01:40:37 2021
$end
$version
	ModelSim Version 10.5b
$end
$timescale
	1ps
$end

$scope module register8_vhd_vec_tst $end
$var wire 1 ! clk $end
$var wire 1 " datain [7] $end
$var wire 1 # datain [6] $end
$var wire 1 $ datain [5] $end
$var wire 1 % datain [4] $end
$var wire 1 & datain [3] $end
$var wire 1 ' datain [2] $end
$var wire 1 ( datain [1] $end
$var wire 1 ) datain [0] $end
$var wire 1 * dataout [7] $end
$var wire 1 + dataout [6] $end
$var wire 1 , dataout [5] $end
$var wire 1 - dataout [4] $end
$var wire 1 . dataout [3] $end
$var wire 1 / dataout [2] $end
$var wire 1 0 dataout [1] $end
$var wire 1 1 dataout [0] $end
$var wire 1 2 wrEn $end

$scope module i1 $end
$var wire 1 3 gnd $end
$var wire 1 4 vcc $end
$var wire 1 5 unknown $end
$var wire 1 6 devoe $end
$var wire 1 7 devclrn $end
$var wire 1 8 devpor $end
$var wire 1 9 ww_devoe $end
$var wire 1 : ww_devclrn $end
$var wire 1 ; ww_devpor $end
$var wire 1 < ww_clk $end
$var wire 1 = ww_wrEn $end
$var wire 1 > ww_datain [7] $end
$var wire 1 ? ww_datain [6] $end
$var wire 1 @ ww_datain [5] $end
$var wire 1 A ww_datain [4] $end
$var wire 1 B ww_datain [3] $end
$var wire 1 C ww_datain [2] $end
$var wire 1 D ww_datain [1] $end
$var wire 1 E ww_datain [0] $end
$var wire 1 F ww_dataout [7] $end
$var wire 1 G ww_dataout [6] $end
$var wire 1 H ww_dataout [5] $end
$var wire 1 I ww_dataout [4] $end
$var wire 1 J ww_dataout [3] $end
$var wire 1 K ww_dataout [2] $end
$var wire 1 L ww_dataout [1] $end
$var wire 1 M ww_dataout [0] $end
$var wire 1 N \dataout[0]~output_o\ $end
$var wire 1 O \dataout[1]~output_o\ $end
$var wire 1 P \dataout[2]~output_o\ $end
$var wire 1 Q \dataout[3]~output_o\ $end
$var wire 1 R \dataout[4]~output_o\ $end
$var wire 1 S \dataout[5]~output_o\ $end
$var wire 1 T \dataout[6]~output_o\ $end
$var wire 1 U \dataout[7]~output_o\ $end
$var wire 1 V \clk~input_o\ $end
$var wire 1 W \datain[0]~input_o\ $end
$var wire 1 X \wrEn~input_o\ $end
$var wire 1 Y \dataout[0]~reg0_q\ $end
$var wire 1 Z \datain[1]~input_o\ $end
$var wire 1 [ \dataout[1]~reg0_q\ $end
$var wire 1 \ \datain[2]~input_o\ $end
$var wire 1 ] \dataout[2]~reg0_q\ $end
$var wire 1 ^ \datain[3]~input_o\ $end
$var wire 1 _ \dataout[3]~reg0_q\ $end
$var wire 1 ` \datain[4]~input_o\ $end
$var wire 1 a \dataout[4]~reg0_q\ $end
$var wire 1 b \datain[5]~input_o\ $end
$var wire 1 c \dataout[5]~reg0_q\ $end
$var wire 1 d \datain[6]~input_o\ $end
$var wire 1 e \dataout[6]~reg0_q\ $end
$var wire 1 f \datain[7]~input_o\ $end
$var wire 1 g \dataout[7]~reg0_q\ $end
$upscope $end
$upscope $end
$enddefinitions $end
#0
$dumpvars
0!
02
03
14
x5
16
17
18
19
1:
1;
0<
0=
0N
0O
0P
0Q
0R
0S
0T
0U
0V
1W
0X
0Y
0Z
0[
0\
0]
1^
0_
0`
0a
0b
0c
0d
0e
1f
0g
1"
0#
0$
0%
1&
0'
0(
1)
1>
0?
0@
0A
1B
0C
0D
1E
0F
0G
0H
0I
0J
0K
0L
0M
0*
0+
0,
0-
0.
0/
00
01
$end
#40000
1!
1<
1V
#50000
12
1=
1X
#80000
0!
0<
0V
#120000
1!
1<
1V
1Y
1_
1g
1U
1Q
1N
1F
1J
1M
11
1.
1*
#160000
0!
0<
0V
#200000
1!
0"
1(
1<
1D
0>
0f
1Z
1V
#240000
0!
0<
0V
#280000
1!
1<
1V
1[
0g
0U
1O
0F
1L
10
0*
#320000
0!
0<
0V
#360000
1!
1<
1V
#400000
0!
1"
1#
1$
1%
0&
1'
0<
1C
0B
1A
1@
1?
1>
1f
1d
1b
1`
0^
1\
0V
#440000
1!
1<
1V
1]
0_
1a
1c
1e
1g
1U
1T
1S
1R
0Q
1P
1F
1G
1H
1I
0J
1K
1/
0.
1-
1,
1+
1*
#480000
0!
0<
0V
#520000
1!
1<
1V
#560000
0!
0<
0V
#600000
1!
0"
0#
0$
0%
1&
0(
1<
0D
1B
0A
0@
0?
0>
0f
0d
0b
0`
1^
0Z
1V
#640000
0!
0<
0V
#680000
1!
1<
1V
0[
1_
0a
0c
0e
0g
0U
0T
0S
0R
1Q
0O
0F
0G
0H
0I
1J
0L
00
1.
0-
0,
0+
0*
#720000
0!
0<
0V
#760000
1!
1<
1V
#800000
0!
1"
1#
1(
0'
0<
1D
0C
1?
1>
1f
1d
0\
1Z
0V
#840000
1!
1<
1V
1[
0]
1e
1g
1U
1T
0P
1O
1F
1G
0K
1L
10
0/
1+
1*
#880000
0!
0<
0V
#920000
1!
1<
1V
#960000
0!
0<
0V
