2_semestre/LSD/lsdalone/trab5/p3/simulation/qsim/parte3.msim.vcd
$comment
	File created using the following command:
		vcd file parte3.msim.vcd -direction
$end
$date
	Mon Jun 14 22:26:54 2021
$end
$version
	ModelSim Version 10.5b
$end
$timescale
	1ps
$end

$scope module timern_vhd_vec_tst $end
$var wire 1 ! clk $end
$var wire 1 " enable $end
$var wire 1 # reset $end
$var wire 1 $ start $end
$var wire 1 % timerout $end

$scope module i1 $end
$var wire 1 & gnd $end
$var wire 1 ' vcc $end
$var wire 1 ( unknown $end
$var wire 1 ) devoe $end
$var wire 1 * devclrn $end
$var wire 1 + devpor $end
$var wire 1 , ww_devoe $end
$var wire 1 - ww_devclrn $end
$var wire 1 . ww_devpor $end
$var wire 1 / ww_start $end
$var wire 1 0 ww_reset $end
$var wire 1 1 ww_enable $end
$var wire 1 2 ww_clk $end
$var wire 1 3 ww_timerout $end
$var wire 1 4 \timerout~output_o\ $end
$var wire 1 5 \clk~input_o\ $end
$var wire 1 6 \enable~input_o\ $end
$var wire 1 7 \count[0]~32_combout\ $end
$var wire 1 8 \start~input_o\ $end
$var wire 1 9 \count[2]~37\ $end
$var wire 1 : \count[3]~41_combout\ $end
$var wire 1 ; \reset~input_o\ $end
$var wire 1 < \count[0]~39_combout\ $end
$var wire 1 = \count[0]~40_combout\ $end
$var wire 1 > \count[3]~42\ $end
$var wire 1 ? \count[4]~43_combout\ $end
$var wire 1 @ \Equal0~0_combout\ $end
$var wire 1 A \count[4]~44\ $end
$var wire 1 B \count[5]~45_combout\ $end
$var wire 1 C \count[5]~46\ $end
$var wire 1 D \count[6]~47_combout\ $end
$var wire 1 E \count[6]~48\ $end
$var wire 1 F \count[7]~49_combout\ $end
$var wire 1 G \count[7]~50\ $end
$var wire 1 H \count[8]~51_combout\ $end
$var wire 1 I \Equal0~1_combout\ $end
$var wire 1 J \count[8]~52\ $end
$var wire 1 K \count[9]~53_combout\ $end
$var wire 1 L \count[9]~54\ $end
$var wire 1 M \count[10]~55_combout\ $end
$var wire 1 N \count[10]~56\ $end
$var wire 1 O \count[11]~57_combout\ $end
$var wire 1 P \count[11]~58\ $end
$var wire 1 Q \count[12]~59_combout\ $end
$var wire 1 R \Equal0~2_combout\ $end
$var wire 1 S \count[12]~60\ $end
$var wire 1 T \count[13]~61_combout\ $end
$var wire 1 U \count[13]~62\ $end
$var wire 1 V \count[14]~63_combout\ $end
$var wire 1 W \count[14]~64\ $end
$var wire 1 X \count[15]~65_combout\ $end
$var wire 1 Y \count[15]~66\ $end
$var wire 1 Z \count[16]~67_combout\ $end
$var wire 1 [ \Equal0~3_combout\ $end
$var wire 1 \ \Equal0~4_combout\ $end
$var wire 1 ] \count[16]~68\ $end
$var wire 1 ^ \count[17]~69_combout\ $end
$var wire 1 _ \count[17]~70\ $end
$var wire 1 ` \count[18]~71_combout\ $end
$var wire 1 a \count[18]~72\ $end
$var wire 1 b \count[19]~73_combout\ $end
$var wire 1 c \count[19]~74\ $end
$var wire 1 d \count[20]~75_combout\ $end
$var wire 1 e \Equal0~5_combout\ $end
$var wire 1 f \count[20]~76\ $end
$var wire 1 g \count[21]~77_combout\ $end
$var wire 1 h \count[21]~78\ $end
$var wire 1 i \count[22]~79_combout\ $end
$var wire 1 j \count[22]~80\ $end
$var wire 1 k \count[23]~81_combout\ $end
$var wire 1 l \count[23]~82\ $end
$var wire 1 m \count[24]~83_combout\ $end
$var wire 1 n \Equal0~6_combout\ $end
$var wire 1 o \count[24]~84\ $end
$var wire 1 p \count[25]~85_combout\ $end
$var wire 1 q \count[25]~86\ $end
$var wire 1 r \count[26]~87_combout\ $end
$var wire 1 s \count[26]~88\ $end
$var wire 1 t \count[27]~89_combout\ $end
$var wire 1 u \count[27]~90\ $end
$var wire 1 v \count[28]~91_combout\ $end
$var wire 1 w \Equal0~7_combout\ $end
$var wire 1 x \count[28]~92\ $end
$var wire 1 y \count[29]~93_combout\ $end
$var wire 1 z \count[29]~94\ $end
$var wire 1 { \count[30]~95_combout\ $end
$var wire 1 | \count[30]~96\ $end
$var wire 1 } \count[31]~97_combout\ $end
$var wire 1 ~ \Equal0~8_combout\ $end
$var wire 1 !! \Equal0~9_combout\ $end
$var wire 1 "! \count[0]~38_combout\ $end
$var wire 1 #! \count[0]~33\ $end
$var wire 1 $! \count[1]~34_combout\ $end
$var wire 1 %! \count[1]~35\ $end
$var wire 1 &! \count[2]~36_combout\ $end
$var wire 1 '! \timerout~0_combout\ $end
$var wire 1 (! \timerout~1_combout\ $end
$var wire 1 )! \timerout~reg0_q\ $end
$var wire 1 *! count [31] $end
$var wire 1 +! count [30] $end
$var wire 1 ,! count [29] $end
$var wire 1 -! count [28] $end
$var wire 1 .! count [27] $end
$var wire 1 /! count [26] $end
$var wire 1 0! count [25] $end
$var wire 1 1! count [24] $end
$var wire 1 2! count [23] $end
$var wire 1 3! count [22] $end
$var wire 1 4! count [21] $end
$var wire 1 5! count [20] $end
$var wire 1 6! count [19] $end
$var wire 1 7! count [18] $end
$var wire 1 8! count [17] $end
$var wire 1 9! count [16] $end
$var wire 1 :! count [15] $end
$var wire 1 ;! count [14] $end
$var wire 1 <! count [13] $end
$var wire 1 =! count [12] $end
$var wire 1 >! count [11] $end
$var wire 1 ?! count [10] $end
$var wire 1 @! count [9] $end
$var wire 1 A! count [8] $end
$var wire 1 B! count [7] $end
$var wire 1 C! count [6] $end
$var wire 1 D! count [5] $end
$var wire 1 E! count [4] $end
$var wire 1 F! count [3] $end
$var wire 1 G! count [2] $end
$var wire 1 H! count [1] $end
$var wire 1 I! count [0] $end
$upscope $end
$upscope $end
$enddefinitions $end
#0
$dumpvars
0!
1"
1#
0$
0%
0&
1'
x(
1)
1*
1+
1,
1-
1.
0/
10
11
02
03
04
05
16
17
08
09
0:
1;
0<
1=
1>
0?
1@
0A
0B
1C
0D
0E
0F
1G
0H
1I
0J
0K
1L
0M
0N
0O
1P
0Q
1R
0S
0T
1U
0V
0W
0X
1Y
0Z
1[
1\
0]
0^
1_
0`
0a
0b
1c
0d
1e
0f
0g
1h
0i
0j
0k
1l
0m
1n
0o
0p
1q
0r
0s
0t
1u
0v
1w
0x
0y
1z
0{
0|
0}
1~
1!!
1"!
0#!
0$!
1%!
0&!
0'!
0(!
0)!
0*!
0+!
0,!
0-!
0.!
0/!
00!
01!
02!
03!
04!
05!
06!
07!
08!
09!
0:!
0;!
0<!
0=!
0>!
0?!
0@!
0A!
0B!
0C!
0D!
0E!
0F!
0G!
0H!
0I!
$end
#20000
1!
12
15
#40000
0!
0#
02
00
0;
05
1<
0=
#60000
1!
1$
12
1/
18
15
0<
0"!
1=
#80000
0!
02
05
#90000
0$
0/
08
1<
1"!
0=
#100000
1!
12
15
#120000
0!
02
05
#140000
1!
12
15
#150000
1$
1/
18
0<
0"!
1=
#160000
0!
02
05
#180000
1!
12
15
1I!
07
1#!
0@
0\
1$!
0!!
#190000
0$
0/
08
#200000
0!
02
05
#220000
1!
12
15
0I!
1H!
0$!
0%!
17
0#!
1$!
1%!
1&!
0&!
#240000
0!
02
05
#260000
1!
12
15
1I!
07
1#!
0$!
0%!
1&!
#270000
0"
01
06
0=
#280000
0!
02
05
#300000
1!
12
15
#310000
1"
11
16
1=
#320000
0!
02
05
#340000
1!
12
15
0I!
0H!
1G!
0&!
19
1$!
1%!
17
0#!
1@
1\
0$!
1&!
09
1:
0:
1!!
1"!
1'!
1(!
#360000
0!
02
05
#380000
1!
12
15
0G!
1)!
0&!
1<
0'!
0(!
0=
14
13
1%
#400000
0!
02
05
#420000
1!
12
15
0)!
04
03
0%
#440000
0!
02
05
#460000
1!
12
15
#480000
0!
02
05
#500000
1!
12
15
#520000
0!
02
05
#540000
1!
12
15
#560000
0!
02
05
#580000
1!
12
15
#600000
0!
02
05
#620000
1!
12
15
#640000
0!
02
05
#660000
1!
12
15
#680000
0!
02
05
#700000
1!
12
15
#720000
0!
02
05
#740000
1!
12
15
#760000
0!
02
05
#780000
1!
12
15
#800000
0!
02
05
#820000
1!
12
15
#840000
0!
02
05
#860000
1!
12
15
#880000
0!
02
05
#900000
1!
12
15
#920000
0!
02
05
#940000
1!
12
15
#960000
0!
02
05
#980000
1!
12
15
