2_semestre/LSD/lsdalone/trab4/p3/simulation/qsim/parte3.msim.vcd
$comment
	File created using the following command:
		vcd file parte3.msim.vcd -direction
$end
$date
	Fri Apr 23 01:56:45 2021
$end
$version
	ModelSim Version 10.5b
$end
$timescale
	1ps
$end

$scope module counterupdown4_vhd_vec_tst $end
$var wire 1 ! clk $end
$var wire 1 " count [3] $end
$var wire 1 # count [2] $end
$var wire 1 $ count [1] $end
$var wire 1 % count [0] $end
$var wire 1 & reset $end
$var wire 1 ' updown $end

$scope module i1 $end
$var wire 1 ( gnd $end
$var wire 1 ) vcc $end
$var wire 1 * unknown $end
$var wire 1 + devoe $end
$var wire 1 , devclrn $end
$var wire 1 - devpor $end
$var wire 1 . ww_devoe $end
$var wire 1 / ww_devclrn $end
$var wire 1 0 ww_devpor $end
$var wire 1 1 ww_clk $end
$var wire 1 2 ww_updown $end
$var wire 1 3 ww_reset $end
$var wire 1 4 ww_count [3] $end
$var wire 1 5 ww_count [2] $end
$var wire 1 6 ww_count [1] $end
$var wire 1 7 ww_count [0] $end
$var wire 1 8 \count[0]~output_o\ $end
$var wire 1 9 \count[1]~output_o\ $end
$var wire 1 : \count[2]~output_o\ $end
$var wire 1 ; \count[3]~output_o\ $end
$var wire 1 < \clk~input_o\ $end
$var wire 1 = \reset~input_o\ $end
$var wire 1 > \s_count~3_combout\ $end
$var wire 1 ? \updown~input_o\ $end
$var wire 1 @ \s_count[1]~5_cout\ $end
$var wire 1 A \s_count[1]~6_combout\ $end
$var wire 1 B \s_count[1]~7\ $end
$var wire 1 C \s_count[2]~8_combout\ $end
$var wire 1 D \s_count[2]~9\ $end
$var wire 1 E \s_count[3]~10_combout\ $end
$var wire 1 F s_count [3] $end
$var wire 1 G s_count [2] $end
$var wire 1 H s_count [1] $end
$var wire 1 I s_count [0] $end
$upscope $end
$upscope $end
$enddefinitions $end
#0
$dumpvars
0!
1&
0'
0(
1)
x*
1+
1,
1-
1.
1/
10
01
02
13
08
09
0:
0;
0<
1=
0>
0?
0@
1A
1B
1C
0D
1E
04
05
06
07
0F
0G
0H
0I
0"
0#
0$
0%
$end
#20000
1!
11
1<
#40000
0!
01
0<
#50000
1'
12
1?
0A
0C
0E
#60000
1!
11
1<
#70000
0&
03
0=
1>
#80000
0!
01
0<
#100000
1!
0'
11
02
0?
1<
1I
1A
1C
1E
0>
1@
0A
0B
18
0C
1D
17
1%
0E
#120000
0!
01
0<
#140000
1!
11
1<
0I
1>
0@
1A
1B
08
1C
0D
07
0%
1E
#160000
0!
01
0<
#180000
1!
11
1<
1I
1H
1G
1F
0E
0C
1D
0A
0B
0>
1@
1A
1C
1E
1;
1:
19
18
14
15
16
17
1%
1$
1#
1"
#200000
0!
01
0<
#220000
1!
11
1<
0I
1>
0@
0A
08
07
0%
#240000
0!
01
0<
#260000
1!
11
1<
1I
0H
1A
1B
0>
1@
0A
0B
0C
09
18
1C
06
17
1%
0$
#280000
0!
01
0<
#300000
1!
11
1<
0I
1>
0@
1A
1B
08
0C
07
0%
#320000
0!
01
0<
#340000
1!
11
1<
1I
1H
0G
1C
0D
0A
0B
0>
1@
1A
0C
1D
0E
0:
19
18
1E
05
16
17
1%
1$
0#
#350000
1'
12
1?
0A
1C
0D
0E
1E
#360000
0!
01
0<
#380000
1!
11
1<
0I
0H
1G
0C
1D
1A
1B
1>
0@
0A
1C
0D
0E
1:
09
08
1E
15
06
07
0%
0$
1#
#400000
0!
0'
01
02
0?
0<
1A
0C
1D
0E
1E
#420000
1!
11
1<
1I
1H
0G
1C
0D
0A
0B
0>
1@
1A
0C
1D
0E
0:
19
18
1E
05
16
17
1%
1$
0#
#440000
0!
01
0<
#450000
1'
12
1?
0A
1C
0D
0E
1E
#460000
1!
11
1<
0I
0H
1G
0C
1D
1A
1B
1>
0@
0A
1C
0D
0E
1:
09
08
1E
15
06
07
0%
0$
1#
#480000
0!
01
0<
#500000
1!
0'
11
02
0?
1<
1I
1A
0C
1D
0E
1E
0>
1@
0A
0B
18
1C
17
1%
#520000
0!
01
0<
#540000
1!
11
1<
0I
1>
0@
1A
1B
08
0C
07
0%
#550000
1'
12
1?
0A
1C
0D
0E
1E
#560000
0!
01
0<
#580000
1!
11
1<
1I
0>
1@
1A
18
17
1%
#600000
0!
0'
1&
01
02
13
1=
0?
0<
0A
0B
0C
1D
0E
1E
1C
#620000
1!
11
1<
0I
0G
0F
0E
0C
0@
1A
1B
0;
0:
08
1C
0D
04
05
07
0%
0#
0"
1E
#640000
0!
01
0<
#650000
1'
12
1?
0A
0C
0E
#660000
1!
11
1<
#680000
0!
01
0<
#700000
1!
11
1<
#720000
0!
01
0<
#740000
1!
11
1<
#760000
0!
01
0<
#780000
1!
11
1<
#800000
0!
0&
01
03
0=
0<
1>
#820000
1!
11
1<
1I
0>
1@
1A
18
17
1%
#840000
0!
01
0<
#850000
0'
02
0?
0A
0B
1C
1E
0C
1D
0E
#860000
1!
11
1<
0I
1>
0@
1A
1B
08
1C
0D
07
0%
1E
#880000
0!
01
0<
#900000
1!
11
1<
1I
1H
1G
1F
0E
0C
1D
0A
0B
0>
1@
1A
1C
1E
1;
1:
19
18
14
15
16
17
1%
1$
1#
1"
#920000
0!
01
0<
#940000
1!
11
1<
0I
1>
0@
0A
08
07
0%
#950000
1'
12
1?
1A
1B
0C
0E
1C
0D
1E
#960000
0!
01
0<
#980000
1!
11
1<
1I
0>
1@
0A
0B
18
0C
1D
17
1%
0E
