2_semestre/LSD/lsdalone/trab5/p1/simulation/qsim/parte1.msim.vcd
$comment
	File created using the following command:
		vcd file parte1.msim.vcd -direction
$end
$date
	Thu Apr 29 19:14:01 2021
$end
$version
	ModelSim Version 10.5b
$end
$timescale
	1ps
$end

$scope module cmpn_vhd_vec_tst $end
$var wire 1 ! equal $end
$var wire 1 " input0 [7] $end
$var wire 1 # input0 [6] $end
$var wire 1 $ input0 [5] $end
$var wire 1 % input0 [4] $end
$var wire 1 & input0 [3] $end
$var wire 1 ' input0 [2] $end
$var wire 1 ( input0 [1] $end
$var wire 1 ) input0 [0] $end
$var wire 1 * input1 [7] $end
$var wire 1 + input1 [6] $end
$var wire 1 , input1 [5] $end
$var wire 1 - input1 [4] $end
$var wire 1 . input1 [3] $end
$var wire 1 / input1 [2] $end
$var wire 1 0 input1 [1] $end
$var wire 1 1 input1 [0] $end
$var wire 1 2 ltSigned $end
$var wire 1 3 ltUnsigned $end
$var wire 1 4 notEqual $end

$scope module i1 $end
$var wire 1 5 gnd $end
$var wire 1 6 vcc $end
$var wire 1 7 unknown $end
$var wire 1 8 devoe $end
$var wire 1 9 devclrn $end
$var wire 1 : devpor $end
$var wire 1 ; ww_devoe $end
$var wire 1 < ww_devclrn $end
$var wire 1 = ww_devpor $end
$var wire 1 > ww_input0 [7] $end
$var wire 1 ? ww_input0 [6] $end
$var wire 1 @ ww_input0 [5] $end
$var wire 1 A ww_input0 [4] $end
$var wire 1 B ww_input0 [3] $end
$var wire 1 C ww_input0 [2] $end
$var wire 1 D ww_input0 [1] $end
$var wire 1 E ww_input0 [0] $end
$var wire 1 F ww_input1 [7] $end
$var wire 1 G ww_input1 [6] $end
$var wire 1 H ww_input1 [5] $end
$var wire 1 I ww_input1 [4] $end
$var wire 1 J ww_input1 [3] $end
$var wire 1 K ww_input1 [2] $end
$var wire 1 L ww_input1 [1] $end
$var wire 1 M ww_input1 [0] $end
$var wire 1 N ww_equal $end
$var wire 1 O ww_notEqual $end
$var wire 1 P ww_ltSigned $end
$var wire 1 Q ww_ltUnsigned $end
$var wire 1 R \equal~output_o\ $end
$var wire 1 S \notEqual~output_o\ $end
$var wire 1 T \ltSigned~output_o\ $end
$var wire 1 U \ltUnsigned~output_o\ $end
$var wire 1 V \input0[0]~input_o\ $end
$var wire 1 W \input0[1]~input_o\ $end
$var wire 1 X \input1[1]~input_o\ $end
$var wire 1 Y \input1[0]~input_o\ $end
$var wire 1 Z \Equal0~0_combout\ $end
$var wire 1 [ \input0[2]~input_o\ $end
$var wire 1 \ \input0[3]~input_o\ $end
$var wire 1 ] \input1[3]~input_o\ $end
$var wire 1 ^ \input1[2]~input_o\ $end
$var wire 1 _ \Equal0~1_combout\ $end
$var wire 1 ` \input0[4]~input_o\ $end
$var wire 1 a \input0[5]~input_o\ $end
$var wire 1 b \input1[5]~input_o\ $end
$var wire 1 c \input1[4]~input_o\ $end
$var wire 1 d \Equal0~2_combout\ $end
$var wire 1 e \input0[6]~input_o\ $end
$var wire 1 f \input0[7]~input_o\ $end
$var wire 1 g \input1[7]~input_o\ $end
$var wire 1 h \input1[6]~input_o\ $end
$var wire 1 i \Equal0~3_combout\ $end
$var wire 1 j \Equal0~4_combout\ $end
$var wire 1 k \LessThan0~1_cout\ $end
$var wire 1 l \LessThan0~3_cout\ $end
$var wire 1 m \LessThan0~5_cout\ $end
$var wire 1 n \LessThan0~7_cout\ $end
$var wire 1 o \LessThan0~9_cout\ $end
$var wire 1 p \LessThan0~11_cout\ $end
$var wire 1 q \LessThan0~13_cout\ $end
$var wire 1 r \LessThan0~14_combout\ $end
$var wire 1 s \LessThan1~1_cout\ $end
$var wire 1 t \LessThan1~3_cout\ $end
$var wire 1 u \LessThan1~5_cout\ $end
$var wire 1 v \LessThan1~7_cout\ $end
$var wire 1 w \LessThan1~9_cout\ $end
$var wire 1 x \LessThan1~11_cout\ $end
$var wire 1 y \LessThan1~13_cout\ $end
$var wire 1 z \LessThan1~14_combout\ $end
$var wire 1 { \ALT_INV_Equal0~4_combout\ $end
$upscope $end
$upscope $end
$enddefinitions $end
#0
$dumpvars
0!
02
03
14
05
16
x7
18
19
1:
1;
1<
1=
0N
1O
0P
0Q
0R
1S
0T
0U
0V
0W
1X
1Y
0Z
1[
0\
0]
0^
0_
0`
1a
0b
1c
0d
1e
1f
1g
0h
0i
0j
1k
0l
0m
1n
1o
1p
0q
0r
1s
0t
0u
1v
1w
1x
0y
0z
1{
1"
1#
1$
0%
0&
1'
0(
0)
1*
0+
0,
1-
0.
0/
10
11
1>
1?
1@
0A
0B
1C
0D
0E
1F
0G
0H
1I
0J
0K
1L
1M
$end
#100000
1%
1(
0*
1+
1,
0-
00
01
1D
1A
0M
0L
0I
1H
1G
0F
0g
1h
1b
0c
0X
0Y
1`
1W
0k
0s
1l
1t
0o
0w
0p
0x
1r
1y
1q
1x
1p
0q
0y
1T
1P
12
#200000
0"
0#
0'
1)
1/
1E
0C
0?
0>
1K
1^
0f
0e
0[
1V
1q
1y
0r
1m
1u
0v
0n
1z
1r
0T
0P
1T
1U
02
1P
1Q
12
13
#300000
1#
1'
0/
0%
0+
1-
10
11
0$
1&
1C
1B
0A
0@
1?
1M
1L
0K
1I
0G
0h
1c
0^
1X
1Y
1e
0a
0`
1\
1[
1n
1v
0p
0x
1Z
0m
0u
1o
1w
0q
0y
0z
0r
0T
0U
0P
0Q
02
03
#400000
1/
1+
0-
01
0)
0,
0M
1K
0I
0H
1G
0E
0V
1h
0b
0c
1^
0Y
0o
0w
1d
1i
1q
1y
1z
1r
1x
1p
0q
0y
0z
0r
1T
1U
1P
1Q
12
13
0T
0U
0P
0Q
02
03
#500000
0/
0+
1-
11
1)
1,
1%
00
0&
1"
0(
1.
1M
0L
0K
1J
1I
1H
0G
1E
0D
0B
1A
1>
1f
1`
0\
0W
1V
0h
1b
1c
1]
0^
0X
1Y
0p
0x
0n
0v
0d
0i
1r
1w
1o
1T
1P
12
#600000
1/
0-
01
0,
10
0.
0#
0'
1*
0M
1L
1K
0J
0I
0H
1F
0C
0?
0e
0[
1g
0b
0c
0]
1^
1X
0Y
0Z
0l
0t
1n
1v
0o
0w
0r
1m
1u
1i
1q
1y
1z
1r
0v
0n
1x
1p
0q
0y
0T
0z
0r
0P
1T
1U
02
1P
1Q
12
13
0T
0U
0P
0Q
02
03
#700000
0/
1,
1.
1#
1'
0"
0K
1J
1H
1C
1?
0>
0f
1e
1[
1b
1]
0^
0p
0x
0m
0u
0i
1z
1U
1Q
13
#800000
1/
0#
1-
11
00
0*
0)
1(
1$
1M
0L
1K
1I
0F
0E
1D
1@
0?
0e
1a
1W
0V
0g
1c
1^
0X
1Y
1m
1u
1o
1w
0z
1k
1s
1l
1t
1d
1p
1x
1i
1q
1y
1z
1r
0y
0q
0u
0m
0x
0p
1q
1y
0r
0z
0U
1z
1r
0Q
1T
1U
03
1P
1Q
0U
0T
12
13
0Q
0P
1T
1U
03
02
1P
1Q
12
13
#900000
1#
1*
0(
0,
0.
0D
1?
0J
0H
1F
1g
0b
0]
1e
0W
0l
0t
0q
0y
1_
1n
1v
0d
1p
1x
0i
0r
0w
0o
1u
1m
0n
0v
0T
1w
1o
0P
02
