2_semestre/LSD/lsdalone/trab5/p2/simulation/qsim/parte2.msim.vcd
$comment
	File created using the following command:
		vcd file parte2.msim.vcd -direction
$end
$date
	Fri Apr 30 00:43:11 2021
$end
$version
	ModelSim Version 10.5b
$end
$timescale
	1ps
$end

$scope module accn_vhd_vec_tst $end
$var wire 1 ! clk $end
$var wire 1 " datain [7] $end
$var wire 1 # datain [6] $end
$var wire 1 $ datain [5] $end
$var wire 1 % datain [4] $end
$var wire 1 & datain [3] $end
$var wire 1 ' datain [2] $end
$var wire 1 ( datain [1] $end
$var wire 1 ) datain [0] $end
$var wire 1 * dataout [7] $end
$var wire 1 + dataout [6] $end
$var wire 1 , dataout [5] $end
$var wire 1 - dataout [4] $end
$var wire 1 . dataout [3] $end
$var wire 1 / dataout [2] $end
$var wire 1 0 dataout [1] $end
$var wire 1 1 dataout [0] $end
$var wire 1 2 enable $end
$var wire 1 3 reset $end

$scope module i1 $end
$var wire 1 4 gnd $end
$var wire 1 5 vcc $end
$var wire 1 6 unknown $end
$var wire 1 7 devoe $end
$var wire 1 8 devclrn $end
$var wire 1 9 devpor $end
$var wire 1 : ww_devoe $end
$var wire 1 ; ww_devclrn $end
$var wire 1 < ww_devpor $end
$var wire 1 = ww_clk $end
$var wire 1 > ww_datain [7] $end
$var wire 1 ? ww_datain [6] $end
$var wire 1 @ ww_datain [5] $end
$var wire 1 A ww_datain [4] $end
$var wire 1 B ww_datain [3] $end
$var wire 1 C ww_datain [2] $end
$var wire 1 D ww_datain [1] $end
$var wire 1 E ww_datain [0] $end
$var wire 1 F ww_reset $end
$var wire 1 G ww_enable $end
$var wire 1 H ww_dataout [7] $end
$var wire 1 I ww_dataout [6] $end
$var wire 1 J ww_dataout [5] $end
$var wire 1 K ww_dataout [4] $end
$var wire 1 L ww_dataout [3] $end
$var wire 1 M ww_dataout [2] $end
$var wire 1 N ww_dataout [1] $end
$var wire 1 O ww_dataout [0] $end
$var wire 1 P \dataout[0]~output_o\ $end
$var wire 1 Q \dataout[1]~output_o\ $end
$var wire 1 R \dataout[2]~output_o\ $end
$var wire 1 S \dataout[3]~output_o\ $end
$var wire 1 T \dataout[4]~output_o\ $end
$var wire 1 U \dataout[5]~output_o\ $end
$var wire 1 V \dataout[6]~output_o\ $end
$var wire 1 W \dataout[7]~output_o\ $end
$var wire 1 X \clk~input_o\ $end
$var wire 1 Y \datain[0]~input_o\ $end
$var wire 1 Z \t2|dataout[0]~8_combout\ $end
$var wire 1 [ \reset~input_o\ $end
$var wire 1 \ \enable~input_o\ $end
$var wire 1 ] \t2|dataout[0]~10_combout\ $end
$var wire 1 ^ \datain[1]~input_o\ $end
$var wire 1 _ \t2|dataout[0]~9\ $end
$var wire 1 ` \t2|dataout[1]~11_combout\ $end
$var wire 1 a \datain[2]~input_o\ $end
$var wire 1 b \t2|dataout[1]~12\ $end
$var wire 1 c \t2|dataout[2]~13_combout\ $end
$var wire 1 d \datain[3]~input_o\ $end
$var wire 1 e \t2|dataout[2]~14\ $end
$var wire 1 f \t2|dataout[3]~15_combout\ $end
$var wire 1 g \datain[4]~input_o\ $end
$var wire 1 h \t2|dataout[3]~16\ $end
$var wire 1 i \t2|dataout[4]~17_combout\ $end
$var wire 1 j \datain[5]~input_o\ $end
$var wire 1 k \t2|dataout[4]~18\ $end
$var wire 1 l \t2|dataout[5]~19_combout\ $end
$var wire 1 m \datain[6]~input_o\ $end
$var wire 1 n \t2|dataout[5]~20\ $end
$var wire 1 o \t2|dataout[6]~21_combout\ $end
$var wire 1 p \datain[7]~input_o\ $end
$var wire 1 q \t2|dataout[6]~22\ $end
$var wire 1 r \t2|dataout[7]~23_combout\ $end
$var wire 1 s \t2|dataout\ [7] $end
$var wire 1 t \t2|dataout\ [6] $end
$var wire 1 u \t2|dataout\ [5] $end
$var wire 1 v \t2|dataout\ [4] $end
$var wire 1 w \t2|dataout\ [3] $end
$var wire 1 x \t2|dataout\ [2] $end
$var wire 1 y \t2|dataout\ [1] $end
$var wire 1 z \t2|dataout\ [0] $end
$upscope $end
$upscope $end
$enddefinitions $end
#0
$dumpvars
0!
12
03
04
15
x6
17
18
19
1:
1;
1<
0=
0F
1G
0P
0Q
0R
0S
0T
0U
0V
0W
0X
1Y
1Z
0[
1\
1]
1^
0_
1`
1a
1b
1c
1d
0e
1f
0g
1h
0i
1j
0k
1l
0m
1n
0o
0p
0q
0r
0"
0#
1$
0%
1&
1'
1(
1)
0>
0?
1@
0A
1B
1C
1D
1E
0H
0I
0J
0K
0L
0M
0N
0O
0s
0t
0u
0v
0w
0x
0y
0z
0*
0+
0,
0-
0.
0/
00
01
$end
#20000
1!
1=
1X
1z
1y
1x
1w
1u
0l
0n
0f
0h
0c
1e
0`
0b
0Z
1_
1`
1c
1f
1i
1o
1U
1S
1R
1Q
1P
1J
1L
1M
1N
1O
11
10
1/
1.
1,
#40000
0!
0=
0X
#60000
1!
1=
1X
0z
1v
0u
1t
0o
1q
1l
1n
0i
1k
1Z
0_
0`
0l
0n
1o
0q
1r
1V
0U
1T
0P
0r
0o
1q
1I
0J
1K
0O
01
1-
0,
1+
1r
#80000
0!
0=
0X
#100000
1!
1=
1X
1z
0y
0v
0t
1s
0r
1o
0q
1i
0k
1`
1b
0Z
1_
0`
0b
0c
1l
1n
1r
1W
0V
0T
0Q
1P
0o
1c
1H
0I
0K
0N
1O
11
00
0-
0+
1*
#120000
0!
0=
0X
#140000
1!
1=
1X
0z
1v
1u
0l
0n
0i
1k
1Z
0_
1`
1b
1l
1o
1U
1T
0P
0c
1J
1K
0O
01
1-
1,
#160000
0!
0=
0X
#180000
1!
1=
1X
1z
1y
0x
0v
1t
0o
1q
1i
0k
1c
0e
0`
0b
0Z
1_
1`
0c
1e
0f
0l
0r
1V
0T
0R
1Q
1P
1f
1I
0K
0M
1N
1O
11
10
0/
0-
1+
#200000
0!
1"
1#
1%
0&
0'
0(
0=
0D
0C
0B
1A
1?
1>
1p
1m
1g
0d
0a
0^
0X
0`
1c
0e
0f
0i
1k
1o
1r
1l
1f
1h
1i
0k
0l
#220000
1!
1=
1X
0z
0y
1x
1v
0u
1l
1n
0i
1k
0c
1e
1`
1b
1Z
0_
0`
1c
0e
0f
0h
0l
0n
0o
0U
1T
1R
0Q
0P
1o
1i
1f
1h
0J
1K
1M
0N
0O
01
00
1/
1-
0,
0i
#240000
0!
0=
0X
#260000
1!
1=
1X
1z
0v
1i
0k
0Z
1_
1`
1l
1n
0T
1P
0o
0K
1O
11
0-
#280000
0!
0=
0X
#300000
1!
1=
1X
0z
1y
1v
1u
0t
1o
0q
0l
0n
0i
1k
0`
0b
1Z
0_
1`
1b
0c
1e
1l
0o
1q
0r
0V
1U
1T
1Q
0P
1r
0f
0h
1c
0e
0I
1J
1K
1N
0O
01
10
1-
1,
0+
1f
1h
1i
0i
#310000
13
1F
1[
#320000
0!
0=
0X
#340000
1!
1=
1X
0y
0x
0w
0v
0u
0s
0r
0l
1i
0k
0f
0c
0`
1l
1n
0W
0U
0T
0S
0R
0Q
1o
0q
0H
0J
0K
0L
0M
0N
00
0/
0.
0-
0,
0*
1r
#360000
0!
0=
0X
#380000
1!
1=
1X
#400000
0!
03
1&
0$
0)
0=
0F
0E
1B
0@
0j
1d
0Y
0[
0X
0Z
1f
0l
#420000
1!
1=
1X
1w
1v
1t
1s
0r
0o
1q
0i
1k
0f
0h
1i
1l
1r
1W
1V
1T
1S
1H
1I
1K
1L
1.
1-
1+
1*
#440000
0!
0=
0X
#460000
1!
1=
1X
0w
1u
0t
1o
0q
0l
0n
1f
1h
0i
0o
1q
0r
0V
1U
0S
1r
0I
1J
0L
0.
1,
0+
#480000
0!
0=
0X
#500000
1!
1=
1X
1w
0v
0u
1l
1n
1i
0k
0f
0h
0i
1k
0l
1o
0q
0U
0T
1S
0r
1l
0J
0K
1L
1.
0-
0,
#520000
0!
0=
0X
#540000
1!
1=
1X
0w
1u
1t
0s
1r
0o
1q
0l
0n
1f
1h
1i
0k
1o
0r
0W
1V
1U
0S
1l
1n
0H
1I
1J
0L
0.
1,
1+
0*
0o
#560000
0!
0=
0X
#580000
1!
1=
1X
1w
1v
0t
1o
0q
0i
1k
0f
0h
1i
0l
0n
1r
0V
1T
1S
0o
1q
0I
1K
1L
1.
1-
0+
0r
#600000
0!
0&
1)
0"
0#
0=
1E
0B
0?
0>
0p
0m
0d
1Y
0X
1Z
1f
1h
1o
0q
1r
0r
0i
#620000
1!
1=
1X
1z
0v
0u
1t
0o
1q
1l
1n
1i
0k
0Z
1_
1`
0l
1o
0q
1r
1V
0U
0T
1P
0r
1I
0J
0K
1O
11
0-
0,
1+
#640000
0!
0=
0X
#660000
1!
1=
1X
0z
1y
1v
0i
1k
0`
0b
1Z
0_
1`
1b
1c
1l
1T
1Q
0P
0c
1K
1N
0O
01
10
1-
#680000
0!
0=
0X
#700000
1!
1=
1X
1z
0v
1u
0l
0n
1i
0k
0Z
1_
0`
0b
1l
1n
0o
1q
1U
0T
1P
1r
1o
0q
1c
1J
0K
1O
11
0-
1,
0r
#720000
0!
0=
0X
#740000
1!
1=
1X
0z
0y
1x
1v
0i
1k
0c
1e
1`
1b
1Z
0_
0`
1c
0e
0f
0h
0l
0n
1T
1R
0Q
0P
0o
1q
1i
1f
1h
1K
1M
0N
0O
01
00
1/
1-
0i
1r
#760000
0!
0=
0X
#780000
1!
1=
1X
1z
0v
0u
0t
1s
0r
1o
0q
1l
1n
1i
0k
0Z
1_
1`
0l
0o
1r
1W
0V
0U
0T
1P
1H
0I
0J
0K
1O
11
0-
0,
0+
1*
#800000
0!
1&
0)
1#
1$
0%
0=
0E
1B
0A
1@
1?
1m
1j
0g
1d
0Y
0X
1Z
0_
0f
0h
0i
1l
1o
1i
0`
#820000
1!
1=
1X
0w
1v
1u
1t
0o
1q
0l
0n
0i
1k
1f
1h
1i
0k
1l
1o
0r
1V
1U
1T
0S
0l
1I
1J
1K
0L
0.
1-
1,
1+
#840000
0!
0=
0X
#860000
1!
1=
1X
1w
0u
0s
1r
1l
1n
0f
0h
0i
1k
0o
0W
0U
1S
0l
0n
0H
0J
1L
1.
0,
0*
1o
#880000
0!
0=
0X
#900000
1!
1=
1X
0w
0v
1s
0r
1i
0k
1f
1h
0i
1l
1n
1W
0T
0S
0o
1H
0K
0L
0.
0-
1*
#920000
0!
0=
0X
#940000
1!
1=
1X
1w
1u
0t
0s
1r
1o
0q
0l
0n
0f
0h
1i
0o
1q
0r
0W
0V
1U
1S
1r
0H
0I
1J
1L
1.
1,
0+
0*
#960000
0!
0=
0X
#980000
1!
1=
1X
0w
1v
0u
1s
0r
1l
1n
0i
1k
1f
1h
1i
0k
0l
0n
1o
0q
1W
0U
1T
0S
1r
0o
1q
1l
1n
1H
0J
1K
0L
0.
1-
0,
1*
1o
0q
0r
1r
